<svg width="38" height="38" viewBox="0 0 38 38" fill="none" xmlns="http://www.w3.org/2000/svg">
<path d="M19.8655 16.6673C22.3863 16.6673 24.4556 14.598 24.4556 12.0772C24.4556 9.55643 22.3863 7.52475 19.8655 7.52475C17.3447 7.52475 15.2754 9.59406 15.2754 12.1148C15.2754 14.6356 17.3071 16.6673 19.8655 16.6673ZM16.8932 12.1148C16.8932 10.497 18.21 9.1802 19.8279 9.1802C21.4457 9.1802 22.7625 10.497 22.7625 12.1148C22.7625 13.7327 21.4833 15.0495 19.8655 15.0495C18.2477 15.0495 16.8932 13.7327 16.8932 12.1148Z" fill="url(#paint0_linear)"/>
<path d="M19.7525 34.8396L29.5347 20.7307C33.1842 15.8396 32.6575 7.82574 28.406 3.57426C26.0733 1.27921 22.9882 0 19.7525 0C16.4793 0 13.4317 1.27921 11.0991 3.57426C6.84759 7.82574 6.28323 15.8396 9.93274 20.7307L19.7525 34.8396ZM19.7525 1.61782C22.5743 1.61782 25.2456 2.70891 27.2397 4.70297C30.9644 8.42772 31.4159 15.4634 28.2179 19.7525L19.7525 31.9802L11.2872 19.7525C8.08917 15.4634 8.54066 8.46535 12.2654 4.70297C14.2595 2.74653 16.8931 1.61782 19.7525 1.61782Z" fill="url(#paint1_linear)"/>
<path d="M0.677228 36.1564L0.225743 36.6079C0.0752475 36.7584 0 36.9842 0 37.1723C0 37.398 0.0752475 37.5861 0.225743 37.7366C0.376238 37.8871 0.60198 37.9624 0.790099 37.9624C1.01584 37.9624 1.20396 37.8871 1.35446 37.7366L1.80594 37.2852C1.95644 37.1347 2.03168 36.9089 2.03168 36.7208C2.03168 36.4951 1.95644 36.3069 1.80594 36.1564C1.54257 35.8554 0.978218 35.8554 0.677228 36.1564Z" fill="url(#paint2_linear)"/>
<path d="M5.60604 32.6199C5.15456 32.6199 4.77832 32.9961 4.77832 33.4476C4.77832 33.8991 5.15456 34.2753 5.60604 34.2753H6.73476C7.18624 34.2753 7.56248 33.8991 7.56248 33.4476C7.56248 32.9961 7.18624 32.6199 6.73476 32.6199H5.60604Z" fill="url(#paint3_linear)"/>
<path d="M4.47726 34.3127C4.47726 34.087 4.40201 33.8989 4.25151 33.7484C3.95052 33.4474 3.42379 33.4474 3.08518 33.7484L2.29508 34.5385C2.14458 34.689 2.06934 34.9147 2.06934 35.1028C2.06934 35.3286 2.14458 35.5167 2.29508 35.6672C2.44557 35.8177 2.67132 35.8929 2.85943 35.8929C3.04755 35.8929 3.2733 35.8177 3.42379 35.6672L4.21389 34.8771C4.40201 34.7266 4.47726 34.5385 4.47726 34.3127Z" fill="url(#paint4_linear)"/>
<path d="M12.4537 32.6199C12.0022 32.6199 11.626 32.9961 11.626 33.4476C11.626 33.8991 12.0022 34.2753 12.4537 34.2753H13.5824C14.0339 34.2753 14.4101 33.8991 14.4101 33.4476C14.4101 32.9961 14.0339 32.6199 13.5824 32.6199H12.4537Z" fill="url(#paint5_linear)"/>
<path d="M9.02987 32.6199C8.57839 32.6199 8.20215 32.9961 8.20215 33.4476C8.20215 33.8991 8.57839 34.2753 9.02987 34.2753H10.1586C10.6101 34.2753 10.9863 33.8991 10.9863 33.4476C10.9863 32.9961 10.6101 32.6199 10.1586 32.6199H9.02987Z" fill="url(#paint6_linear)"/>
<path d="M15.8775 32.6199C15.426 32.6199 15.0498 32.9961 15.0498 33.4476C15.0498 33.8991 15.426 34.2753 15.8775 34.2753H16.5171C16.9686 34.2753 17.3449 33.8991 17.3449 33.4476C17.3449 32.9961 16.9686 32.6199 16.5171 32.6199H15.8775Z" fill="url(#paint7_linear)"/>
<path d="M0.827723 34.0872C1.05347 34.0872 1.24158 34.012 1.39208 33.8615L3.83762 31.4159C3.87525 31.3783 3.9505 31.303 4.02574 31.2654L4.17624 31.1902H4.21386L4.4396 31.1149C4.51485 31.1149 4.5901 31.0773 4.66535 31.0773H14.0713C14.5228 31.0773 14.899 30.7011 14.899 30.2496C14.899 29.7981 14.5228 29.4219 14.0713 29.4219H4.66535C4.47723 29.4219 4.32673 29.4219 4.13861 29.4595C4.06337 29.4595 4.02574 29.4971 3.9505 29.4971L3.76238 29.61C3.68713 29.6476 3.61188 29.6476 3.53663 29.6852C3.46139 29.7229 3.38614 29.7605 3.31089 29.7981L3.27327 29.8357C3.19802 29.8733 3.1604 29.911 3.08515 29.9486C2.93465 30.0615 2.78416 30.1743 2.67129 30.2872L0.225743 32.7328C-0.0752475 33.0337 -0.0752475 33.5605 0.225743 33.8991C0.376238 34.012 0.60198 34.0872 0.827723 34.0872Z" fill="url(#paint8_linear)"/>
<path d="M36.7584 30.9268C36.9841 30.9268 37.1722 30.8516 37.3227 30.7011L37.7742 30.2496C38.0752 29.9486 38.0752 29.4219 37.7742 29.0832C37.4732 28.7823 36.9465 28.7823 36.6079 29.0832L36.1564 29.5347C35.8554 29.8357 35.8554 30.3624 36.1564 30.7011C36.3069 30.8516 36.5326 30.9268 36.7584 30.9268Z" fill="url(#paint9_linear)"/>
<path d="M34.2757 31.416L33.3351 32.3566C33.1846 32.5071 33.1094 32.7328 33.1094 32.9209C33.1094 33.1091 33.1846 33.3348 33.3351 33.4853C33.4856 33.6358 33.7114 33.711 33.8995 33.711C34.0876 33.711 34.3133 33.6358 34.4638 33.4853L35.4044 32.5447C35.5549 32.3942 35.6302 32.1685 35.6302 31.9803C35.6302 31.7922 35.5549 31.5665 35.4044 31.416C35.1034 31.115 34.5767 31.115 34.2757 31.416Z" fill="url(#paint10_linear)"/>
<path d="M30.0992 32.6199C29.6477 32.6199 29.2715 32.9961 29.2715 33.4476C29.2715 33.8991 29.6477 34.2753 30.0992 34.2753H31.4537C31.9051 34.2753 32.2814 33.8991 32.2814 33.4476C32.2814 32.9961 31.9051 32.6199 31.4537 32.6199H30.0992Z" fill="url(#paint11_linear)"/>
<path d="M26.0728 32.6199C25.6214 32.6199 25.2451 32.9961 25.2451 33.4476C25.2451 33.8991 25.6214 34.2753 26.0728 34.2753H27.4273C27.8788 34.2753 28.255 33.8991 28.255 33.4476C28.255 32.9961 27.8788 32.6199 27.4273 32.6199H26.0728Z" fill="url(#paint12_linear)"/>
<path d="M22.7623 32.6199C22.3108 32.6199 21.9346 32.9961 21.9346 33.4476C21.9346 33.8991 22.3108 34.2753 22.7623 34.2753H23.4019C23.8534 34.2753 24.2296 33.8991 24.2296 33.4476C24.2296 32.9961 23.8534 32.6199 23.4019 32.6199H22.7623Z" fill="url(#paint13_linear)"/>
<path d="M36.6081 32.9961L34.1625 35.4416C34.1249 35.4792 34.0496 35.5545 33.9744 35.5921L33.7863 35.705L33.8615 35.8931L33.7487 35.7426L33.5982 35.7802C33.5605 35.7426 33.4853 35.7426 33.41 35.7426H5.07935L4.06351 36.5327C3.87539 36.6832 3.80014 36.8713 3.76252 37.0971C3.72489 37.3228 3.80014 37.5109 3.95064 37.699C4.10113 37.8872 4.32687 38 4.59024 38C4.77836 38 4.96648 37.9248 5.11697 37.8119L5.68133 37.3604H33.4477C33.6358 37.3604 33.7863 37.3604 33.9744 37.3228C34.0496 37.3228 34.1249 37.2852 34.1625 37.2852L34.2378 37.2475C34.313 37.2099 34.3883 37.2099 34.4635 37.1723C34.5388 37.1347 34.614 37.0971 34.6892 37.0594L34.7269 37.0218C34.8021 36.9842 34.8397 36.9466 34.915 36.9089C35.0655 36.7961 35.216 36.6832 35.3289 36.5703L37.7744 34.1248C38.0754 33.8238 38.0754 33.2971 37.7744 32.9584C37.4358 32.6951 36.9091 32.6951 36.6081 32.9961Z" fill="url(#paint14_linear)"/>
<path d="M24.4551 30.2871C24.4551 30.7386 24.8313 31.1149 25.2828 31.1149H32.9957L35.1026 29.0079C35.2531 28.8574 35.3283 28.6317 35.3283 28.4436C35.3283 28.2178 35.2531 28.0297 35.1026 27.8792C34.8016 27.5782 34.2749 27.5782 33.9363 27.8792L32.2808 29.5347H25.2828C24.8313 29.4594 24.4551 29.8357 24.4551 30.2871Z" fill="url(#paint15_linear)"/>
<defs>
<linearGradient id="paint0_linear" x1="15.2548" y1="13.3733" x2="24.4555" y2="13.3733" gradientUnits="userSpaceOnUse">
<stop stop-color="#953A70"/>
<stop offset="1" stop-color="#CB79AB"/>
</linearGradient>
<linearGradient id="paint1_linear" x1="7.46281" y1="22.287" x2="31.9654" y2="22.287" gradientUnits="userSpaceOnUse">
<stop stop-color="#953A70"/>
<stop offset="1" stop-color="#CB79AB"/>
</linearGradient>
<linearGradient id="paint2_linear" x1="-0.00455144" y1="37.2304" x2="2.03166" y2="37.2304" gradientUnits="userSpaceOnUse">
<stop stop-color="#953A70"/>
<stop offset="1" stop-color="#CB79AB"/>
</linearGradient>
<linearGradient id="paint3_linear" x1="4.77208" y1="33.6789" x2="7.56244" y2="33.6789" gradientUnits="userSpaceOnUse">
<stop stop-color="#953A70"/>
<stop offset="1" stop-color="#CB79AB"/>
</linearGradient>
<linearGradient id="paint4_linear" x1="2.06394" y1="35.0389" x2="4.47722" y2="35.0389" gradientUnits="userSpaceOnUse">
<stop stop-color="#953A70"/>
<stop offset="1" stop-color="#CB79AB"/>
</linearGradient>
<linearGradient id="paint5_linear" x1="11.6197" y1="33.6789" x2="14.4101" y2="33.6789" gradientUnits="userSpaceOnUse">
<stop stop-color="#953A70"/>
<stop offset="1" stop-color="#CB79AB"/>
</linearGradient>
<linearGradient id="paint6_linear" x1="8.19591" y1="33.6789" x2="10.9863" y2="33.6789" gradientUnits="userSpaceOnUse">
<stop stop-color="#953A70"/>
<stop offset="1" stop-color="#CB79AB"/>
</linearGradient>
<linearGradient id="paint7_linear" x1="15.0447" y1="33.6789" x2="17.3448" y2="33.6789" gradientUnits="userSpaceOnUse">
<stop stop-color="#953A70"/>
<stop offset="1" stop-color="#CB79AB"/>
</linearGradient>
<linearGradient id="paint8_linear" x1="-0.0333772" y1="32.4063" x2="14.8988" y2="32.4063" gradientUnits="userSpaceOnUse">
<stop stop-color="#953A70"/>
<stop offset="1" stop-color="#CB79AB"/>
</linearGradient>
<linearGradient id="paint9_linear" x1="35.926" y1="30.1812" x2="37.9999" y2="30.1812" gradientUnits="userSpaceOnUse">
<stop stop-color="#953A70"/>
<stop offset="1" stop-color="#CB79AB"/>
</linearGradient>
<linearGradient id="paint10_linear" x1="33.1037" y1="32.8028" x2="35.6301" y2="32.8028" gradientUnits="userSpaceOnUse">
<stop stop-color="#953A70"/>
<stop offset="1" stop-color="#CB79AB"/>
</linearGradient>
<linearGradient id="paint11_linear" x1="29.2647" y1="33.6789" x2="32.2813" y2="33.6789" gradientUnits="userSpaceOnUse">
<stop stop-color="#953A70"/>
<stop offset="1" stop-color="#CB79AB"/>
</linearGradient>
<linearGradient id="paint12_linear" x1="25.2384" y1="33.6789" x2="28.255" y2="33.6789" gradientUnits="userSpaceOnUse">
<stop stop-color="#953A70"/>
<stop offset="1" stop-color="#CB79AB"/>
</linearGradient>
<linearGradient id="paint13_linear" x1="21.9294" y1="33.6789" x2="24.2296" y2="33.6789" gradientUnits="userSpaceOnUse">
<stop stop-color="#953A70"/>
<stop offset="1" stop-color="#CB79AB"/>
</linearGradient>
<linearGradient id="paint14_linear" x1="3.67621" y1="36.114" x2="37.9997" y2="36.114" gradientUnits="userSpaceOnUse">
<stop stop-color="#953A70"/>
<stop offset="1" stop-color="#CB79AB"/>
</linearGradient>
<linearGradient id="paint15_linear" x1="24.4307" y1="29.8677" x2="35.3282" y2="29.8677" gradientUnits="userSpaceOnUse">
<stop stop-color="#953A70"/>
<stop offset="1" stop-color="#CB79AB"/>
</linearGradient>
</defs>
</svg>
