<svg width="88" height="85" viewBox="0 0 88 85" fill="none" xmlns="http://www.w3.org/2000/svg">
<path opacity="0.3" fill-rule="evenodd" clip-rule="evenodd" d="M83.1495 38.4567C85.4735 50.3638 83.7481 63.8662 75.3371 72.5731C67.2353 80.9599 54.2896 80.8456 42.657 80.3739C32.7264 79.9713 23.1878 76.8778 15.8354 70.1607C8.75356 63.6908 4.66833 54.6713 4.02835 45.0833C3.39959 35.6631 6.49901 26.5041 12.4328 19.1833C18.4884 11.7122 26.826 6.29494 36.3604 5.19348C46.1868 4.0583 55.6844 7.5132 63.7593 13.2538C72.7301 19.6313 81.0363 27.63 83.1495 38.4567Z" stroke="black"/>
</svg>
